{
  "project_info": {
    "project_number": "311272000594",
    "firebase_url": "https://tear-tower-20150259.firebaseio.com",
    "project_id": "tear-tower-20150259",
    "storage_bucket": "tear-tower-20150259.appspot.com"
  },
  "client": [
    {
      "client_info": {
        "mobilesdk_app_id": "1:311272000594:android:a913006988d301e955638b",
        "android_client_info": {
          "package_name": "com.hadeul.teartower"
        }
      },
      "oauth_client": [
        {
          "client_id": "311272000594-0oc3tui4iui25rsclikpop26mnbl10du.apps.googleusercontent.com",
          "client_type": 1,
          "android_info": {
            "package_name": "com.hadeul.teartower",
            "certificate_hash": "4528b699f65ac7c000b4ba025e4362303c45ef7b"
          }
        },
        {
          "client_id": "311272000594-caectpsgbh2sqd1n0hdiiojf1i2vt8g8.apps.googleusercontent.com",
          "client_type": 3
        }
      ],
      "api_key": [
        {
          "current_key": "AIzaSyCBxVbK-GLYs7G1c3Q5D7HDOriqjbYUm_k"
        }
      ],
      "services": {
        "appinvite_service": {
          "other_platform_oauth_client": [
            {
              "client_id": "311272000594-caectpsgbh2sqd1n0hdiiojf1i2vt8g8.apps.googleusercontent.com",
              "client_type": 3
            },
            {
              "client_id": "311272000594-ohbobcrdnekiqej7knr6p0qdnk1d3v0c.apps.googleusercontent.com",
              "client_type": 2,
              "ios_info": {
                "bundle_id": "com.hadeul.teartower",
                "app_store_id": "1485195392"
              }
            }
          ]
        }
      }
    }
  ],
  "configuration_version": "1"
}